%YAML 1.1
%TAG !u! tag:unity3d.com,2011:
--- !u!1045 &1
EditorBuildSettings:
  m_ObjectHideFlags: 0
  serializedVersion: 2
  m_Scenes:
  - enabled: 1
    path: Assets/JScenes/Main.unity
    guid: 88d0073e975fdc948ae0b96f079d9f1a
  m_configObjects: {}
